WorseThanHipster,1
mizmoose,1
bmorefunyall,1
treebog,1
ponyproblematic,1
h-cho,1
iroc,1
ChildOfComplexity,1
NocturneOpus9No2,1
DontBanMeForAsking,1
DrWeeGee,0
JohnChrissy,0
DidSantiagoSendYou,0
Chromeback,0
derangedwinchester,0
NewButNotReally,0
SandKey,0
Hugo1215,0
JournalismIsDead,0
duddenmadder,0
FactCheckOnTheFly,0
MAGACovfefe,0
Jiraiyam,0
TheReal_AlphaPatriot,0
Diotima245,0
V-FOR-VICTOR,0
solentgreenis,0
Cacheman01,0
MingTheCat,0
KronusTempus,0
XR29005,0
real_mcnugget,0
TrumpTrumpsDems,0
cholo888,0
ObamaAngry,0
deal_with_it_,0
TrollinBlonde,0
mikek814,0
funkefresh82,0
eatonfools,0
tancredi88,0
RlzJohnnyM,0
Meat-curtain,0
GodSpeedPede,0
PaulRyansEvilTwin,0
Supports45-,0
mysql101,0
NavyPilot101,0
south_florida_guy,0
some1thing1,0
sdsdtfg,0
Hawkeyeflame,0
JohnKimble111,0
cabersmcwaybers,0
icorrectotherpeople,0
therooster194FA,0
smokiefish,0
xcat11onetee,0
Phillysean23,0
Sodors_Finest_Poster,0
paschal325,0
birdlady4trump,0
inf0x0,0
ghee99,0
FabianWolfgang,0
WyoTxn,0
salvecitizen,0
RisingUpfor2020,0
EnderWasRight,0
BrutalTruth101,0
GodKingHarambe,0
CommanderSmokeStack,0
lady_run,0
semlaw,0
RedPillMike,0
AlreadyDiscovered,0
Ham_Sandwich77,0
cmonTHINK,0
unclepaul84,0
DonutsJunction,0
Str8DonLemon,0
Jimr117,0
DisgustedByMisleadia,0
Y-NOT-50-AHEAD-U-ASK,0
DCP45,0
shadowbannedperson1,0
npc_slayer_420,0
r2depor2,0
Baefrank00,0
Lack-of-Focus,0
ObviousRaccoon,0
BadNerfAgent,0
IGotEm,0
QuietJackfruit,0
joaniev9,0
RedditAdminsSuckIt,0
benziebawks,0
Agua61,0
friartrump,0
DJohnT,0
MAJORAPPLEHEAD,0
ClassicPerks,0
Spicy_Shitposts,0
jhomes55,0
__Covfefe_______,0
POTUS_DonnieJ,0
GunToast,0
Carazariah,0
mightybooshh,0
lightmakerflex1,0
deerchief2,0
blocksof,0
Joyce_III,0
Forgototherpassword,0
meltthesnowflakes,0
Aszaszasz,0
theslimreaper2,0
PodestaAmberAlert,0
America_Thirst,0
MNJGA,0
Darkheartisland,0
duanenorman,0
cuckler-meeseeks,0
Le_Pew,0
OptimalError,0
ryry117,0
IvyDevilDog1908,0
MichaelEvancoe,0
jessicarae28382,0
HillarysRancidTaint,0
tifuforreal,0
WTCMolybdenum4753,0
thunderbert80,0
captain_brown1776,0
Deathstalker1776,0
macpride,0
TheCIASellsDrugs,0
Kilo914,0
djexpat,0
slayenemy909,0
TupolevTu-95,0
JPO398,0
AggressionSsb,0
Woodchipper_AF,0
NorthJersey908,0
Greg-2012,0
myanimal3z,0
happygirlonreddit,0
SushiPaste,0
saluboy,0
al3xjones,0
-Howitzer-,0
memetribe,0
talesin,0
OwnFall,0
PinkSnowBirdie,0
MkVIaccount,0
sad_State_of_Affairs,0
Fatkungfuu,0
persistent_derp,0
Peunat,0
Manafort,0
shitnickel,0
GoAwayImB8tn,0
p_pe_lives,0
ZWass777,0
Ghostphaez,0
newbie_TD,0
MakeAusGrouseAgain2,0
hhd411wild,0
muhwreck,0
Sleeveharvey,0
DEYoungRepublicans,0
Leakmouth,0
FuzzieMuff,0
rommelcake,0
MelancholyShits,0
XR29007,0
paco_boost,0
tedandlisa123,0
Bigly-Wrong,0
flyntlarry,0
jaynap1,0
DPerman1983,0
NScorpion,0
HornyliusVanderbutt,0
American_MemeMachine,0
Ejwhite25990808,0
JonestownKool-aid,0
RicksCarter,0
RedNewEnglander,0
abusivehillary,0
carpedonktum,0
IAM_HeavenlyTrumpet,0
DJ41,0
Blueonblue1234,0
Muadaky,0
NarcissusV,0
rastapasta9,0
JJR721,0
isaac-zerke,0
acronyym,0
Tyrion_Baelish_Varys,1
rusticgorilla,1
ISeeYourPostHistory,1
opendarkwing,1
DissidentCory,1
diminutivetom,1
RELEASE_PEE-PEE_TAPE,1
fvtown714x,1
intelusa,1
darthdiablo,1
mac_question,1
shroomigator,1
BJPenwhistle,1
Nerd_199,1
yupyup98765,1
TurgidAbbey,1
Tinfoilpain,1
HeadClot,1
BostonDrivingIsWorse,1
fox-mcleod,1
PeteWenzel,1
DeviantLogic,1
KingNier,1
NeonSwank,1
-FatNixon-,1
HangryHenry,1
veddy_interesting,1
brothersand,1
snowcrash911,1
philogos0,1
ghqwertt,1
tplgigo,1
NegativeQuarter,1
ryntau,1
Mr_Westerfield,1
BobsBarker12,1
SkynetJusticeWarri0r,1
ajdrausal,1
JudgeGroovyman,1
IrishCarBobOmb,1
Lamont-Cranston,1
jdog2050,1
Kakamile,1
uncle_bad_touches,1
Did_I_Die,1
Epistaxis,1
SarquisDeSade,1
dweebsalot,1
hexephant,1
ouch__ouch,1
Starclimber28,1
UnreasonableDoubter,1
showmeurboobsplznthx,1
slackjaw79,1
Annyongman,1
tweakingforjesus,1
Alyscupcakes,1
Shogouki,1
Raistlinseyes,1
Praying4Death,1
Ray3142,1
omni_whore,1
PapaSmurfOrochi,1
PlNG,1
SemperScrotus,1
mynameis_neo,1
CX800,1
James-Incandenza,1
ImBoppin,1
_Loch_Ness_Monster__,1
aikiwiki,1
tullia,1
Woefully_Forgettable,1
OralBean,1
mtlebanonriseup,1
screen317,1
imagepoem,1
Mynameis__--__,1
cityboy2,1
stevestgermain,1
Pipboy3500,1
ImASnobAndProudOfIt,1
Karma-Kosmonaut,1
WackyJack93,1
ChebyshevInequality,1
17yopoliticalthroway,1
Zeeker12,1
BabiesOnQuack,1
uhnonymuhs,1
ENTECH123,1
BlankVerse,1
CoolPaleontologist3,1
MarkdownShadowBot,1
Redbird1138,1
Red_Inferno,1
shallah,1
fireballs619,1
amnas558,1
x1008,1
krikeydile,1
JayColby7,1
SailingPatrickSwayze,1
RushdasSafaa,1
Datina,1
Mattrek,1
ginger_bredman,1
Skinwayfarer,1
CFJ561,1
JeffBeauregard3,1
DYMAXIONman,1
Fiery1Phoenix,1
sepehr_brk,1
JoseTwitterFan,1
FocusBLUE_Org,1
cos,1
rieslingatkos,1
Lindseymattth,1
starman09,1
MakeYourMark98,1
dieKurason,1
DoubleTFan,1
cstagg,1
VisibleBack,1
BobLanier,1
jfish3222,1
zxlkho,1
TrainDems,1
Daman09,1
GreenFeather05,1
flintlock0,1
FishingFred,1
a_wright,1
goodoldshane,1
TrumpSharted,1
gutty976,1
BanksOfTheBassRiver,1
ILikeBigButtss,1
LoyaltyLlama,1
-orestes,1
hbetx9,1
OllieGarkey,1
sventhewalrus,1
Gusthe3rd,1
andreykh,1
Equestriaguy,1
GettingPhysicl,1
michkennedy,1
jonwylie,1
Maddoktor2,1
Meanteenbirder,1
ReaperMage,1
Pilebsa,1
reedemerofsouls,1
EinCB128,1
Knight_of_the_Lepus,1
kamkam678,1
ChurchL80,1
danielthetemp,1
mcpayout,1
Jeffylew77,1
mikejames79,1
Waffles_Remix,1
MCPtz,1
CassiopeiaStillLife,1
hypercube42342,1
beneaththeglamour,1
Elizabethkingia,1
slowjahovitz,1
KermitMadMan,1
ChazNuttycombe,1
PaulPillowfort,1
AzyncYTT,1
ConquerWyoming,1
mjk1093,1
lewblank,1
flyingsquirrel1234,1
damrider,1
humanprogression,1
sporesofdoubt,1
Dhididnfbndk,1
ajkkjjk52,1
NormalGap,1
Shriman_Ripley,1
nukesyeah,1
ekdash,1
secretcache,1
jondavidbrooks,1
LollyPopSuckStop,1
Gambit08,1
Excellent_Mode,1
Kitana37,1
salynch,1
hunter15991,1
Clintyn,1
moaeta,1
resistmod,1
todayilearned83,1
Tele_Prompter,1
skepticalspectacle1,1
railfananime,1
njmaverick,1
BrightRazzmatazz,1
zsreport,1
relevantlife,1
heykarlll,1
TrashyThrower,1
sisyphushaditsoeasy,1
Bolinas99,1
trexmoflex,1
Bennyboy1337,1
BelleAriel,1
_johnlocke_,1
OwnRules,1
legendarygunner,1
moon-worshiper,1
ArianneMartell74,1
dispuffey,1
Ayrane,1
DoremusJessup,1
pnewell,1
sigbhu,1
Sundaysex,1
Carp8DM,1
dont_ban_me_please,1
BuckRowdy,1
ilove60sstuff,1
_Enclose_,1
iam305,1
mvoccaus,1
pixelkicker,1
nomorechalk,1
Trumpcarekills,1
funkalunatic,1
graphictruth,1
ToenailVader,1
thinkB4WeSpeak,1
The_estimator_is_in,1
beeny589,1
UWCG,1
kenacethemenny,1
KubrickIsMyCopilot,1
Stretchsquiggles,1
pfaccioxx,1
druglawyer,1
TheHobbitWhore,1
ToxicRockSindrome,1
ButteryKnob,1
cataplectic,1
muninn_gone,1
rosieruby,1
Glamdryne,1
Spiralyst,1
SplodeyDope,1
DesperateDem,1
pplswar,1
Zippy_The_Pinhead,1
BobbyKristina,1
jesusheretablefor24,1
ShivasRightFoot,1
unrecoverable,1
tuanomsok,1
shawnee_,1
MichaelTen,1
NationofChange,1
Farve0010,1
mjmcaulay,1
Crossofthecloset,1
BYOchocolate,1
mric124,1
punkthesystem,1
mister_brian,1
jlaw54,1
CommanderMcBragg,1
TheForgetfulRedditor,1
DefiantPangolin,1
zeno0771,1
UncleSpoons,1
DylanB101,1
bodnast,1
regular_john2017,1
jackcisme,1
Scytle,1
mrpickleby,1
tu_che_le_vanita,1
veeflarub,1
PatrickPlan8,1
amensch007,1
JoeDimeck,1
91143fd7dc4a5c4e7e74,0
RarityVenom,0
fbiagent_bertmacklin,0
uranNPC,0
faceripper840,0
Ringo9595,0
leftwingsoysquad,0
seeyalaterboye,0
StartedGivingBlood,0
archdemon001,0
JewishPornProducer,0
fornostrangereason,0
NhlProShawn,0
Fudrucker,0
VirtueSignal247,0
memototheworld,0
girllawyer,0
asidowhatido,0
TopofToronto,0
Cemetery21,0
SonofUlysses,0
braapbraap69,0
TibortheChechen,0
Lupinfujiko,0
kaffirdog,0
vigorous,0
IJustThinkOutloud,0
heambbem,0
m1207,0
flyinghighguy,0
torontodude321,0
quickshotmedia,0
AnnoymousName,0
flanks_ghost,0
polakfury,0
thatcher69,0
observablething,0
theStefmeister,0
DuncanIdahos8thClone,0
fatsamsgrandslam,0
MCGA2019,0
SomeoneOnThelnternet,0
CoC4Hire,0
-Sythen-,0
Wild_Zeva,0
prollyjerkingoff,0
jcd1974,0
5quickdub,0
Benevolent_Tyrant,0
poppabyrd_ab,0
cuckedcanuck25,0
LicencedtoShill,0
GhidorahThe3Headed,0
AccidentsWillHapppen,0
ShipMaker,0
Grain_of_Truth,0
red_matrix,0
Archon_Ildabaoth,0
daymanelite,0
toothsomewunwun,0
MazaMantis,0
VacationOnPluto,0
iLLNiSS,0
JDWired,0
double_a_ron,0
barosa,0
dumdumexpress,0
InoffensivePolak,0
HippySol,0
Skippy_the_clown,0
baween,0
BraveToastSandwich,0
CharitableMiser,0
RiverFenix,0
JBerti,0
Squid__Pope,0
Paul_Bernardo,0
justthetipbro22,0
AutomaticNote,0
alexisonfire04,0
wombat_rider,0
CanadianThrowaway321,0
q2018fan,0
AltRightHeathen,0
day25,0
do_you_vape_asshole,0
Floydhead666,1
kenstee52,1
emitremmus27,1
sayknow,1
traunks,1
Phalanx319,1
2DeadMoose,1
Gravityknight,1
HellspikeTheInsane,1
aegist1,1
flaskman,1
Goal1,1
Fitbitnitwit,1
WizzlyG33,1
TheRealMarkB,1
TenYearRedditVet,1
Robertusa123,1
ThatOneSalesGuy,1
Ace-Ventura1934,1
PopsicleMud,1
itsthereaal,1
edmanet,1
swingadmin,1
The-Autarkh,1
justflushit,1
sweetcuppingcakes,1
i-am-sir-castic,1
violeta-b,1
GallowBoob,1
gimmedatjuice,1
Gear_third,1
wiseoldmeme,1
FlexFromPlanetX,1
FinanceSavant,1
StatisticalAstronaut,1
TheLastRat,1
DarthContinent,1
1657509,1
MWM2,1
bmessy46,1
D_Draper282674,1
WVUGuy29,1
chemistrynerd1994,1
Taylork64,1
ColoThor,1
RaboKarabekiann,1
Triplea657,1
NPC-1392017390,1
pr0crasturbatin,1
1mjtaylor,1
Studiodaddyo,1
Handsome_McAwesome,1
Imaginary_Pumpkin,1
MaximumEffort433,1
supermatG,1
Michael_Scar_111,1
Ben4OR,1
boudrou1217,1
JDAo_o,1
simplelifestyle,1
whatsthatbutt,1
DoYouThrowDeWay,1
EliotHudson,1
LC_01,1
ozman123,1
shy_monster_1312,1
OnceAN3rd,1
cicerothedog,1
ShriekingMarxist,1
Caleb_Rapoport,1
babayogi,1
rocketbosszach,1
majojok,1
GriffonsChainsaw,1
animeshsingh95,1
themiddlestHaHa,1
wee_froggy,1
panburger_partner,1
mandoniousrex,1
great_gape,1
incogneatolady,1
IWillContinue001,1
Sujjin,1
707AL,1
bb8675309,1
elttobretaweneglan,1
Elderthedog,1
itwasnotmybike,1
NaturalOpposition01,1
purrgatory920,1
Yankee_Man,1
Forgottheoldpassword,1
Rose9666,1
SuspiciousHyena,1
slacka123,1
Slobotic,1
_eternallyblack_,1
Mylesfakeaccount,1
Robert_Jarman,1
Robby1X,1
muddypaws,1
franandwood,1
nyx_on,1
wikkiwikki42O,1
A_Blind_Alien,1
code_brown,1
brqkke,1
TonyStark__,1
Yamamba78,1
nerdyitguy,1
mhayesfl,1
SteamedHamsInAlbany,1
blackwaltz4,1
Iron_Nexus,1
ReginaldJohnston,1
examinedliving,1
TheNumberMuncher,1
ujjain,1
doesntmakeitalright,1
digitalteacup,1
derek1st,1
thenewyorkgod,1
hejhejmonika,1
bartosama,1
sman876,1
ILoveRegenHealth,1
Just4NormalMortys,1
sketchystuff26,1
Apprehensive_Prune,1
TyneyTymey,1
daveedo_bandito,1
Lowcrbnaman,1
Final_Senator,1
SorryDamage,1
peacelovehap,1
EnoughPM2020,1
alex878,1
diet_pepsi_bottle,1
CantTriforce,1
Disciplesdx,1
oziwikipedian,1
Emily-Eclipse,1
Craftmine_Pro,1
an_onanist,1
lupusetleo,1
EmoLibrarian,1
NickHancock,1
ChipAyten,1
Veuve_Cl1quot,1
wbedwards,1
ardvarkmadman,1
-obscuredbyclouds-,1
TheoreticalHybrid,1
Shabbypenguin,1
LeftyOnenut,1
EarthRester,1
Jackster1209,1
Misterfahrenheit120,1
TooShiftyForYou,1
tetsuo52,1
BunchaGoats,1
taegha,1
pooponagoose,1
Newcool1230,1
lancerelliott,1
muhwreck,1
Checkmynewsong,1
toremygooch,1
drizzyjaay,1
jaykirsch,1
7DaddiesSoggyBiscuit,1
dilton7,1
wolf6152ag,1
SexyStudlyManlyMan,1
thesavedlife,1
profsnuggles,1
Aphreditto,1
CaptMackenzieCalhoun,1
ComradeSealion,1
eroutman,1
moreplacesforever,1
Quasargyle,1
Sir_Ford,1
MemioliRavioli,1
jbhelms,1
thegeebeebee,1
MajesticShadow104,1
dreamo95,1
Dicebomb,1
dthains_art,1
nikkarus,1
Lambiri72177,1
Elizardbreaths,1
-_-_-_-otalp-_-_-_-,1
Blackwidowwitch,1
fluctuatingprincess,1
dem0lecule,1
hellokenji,1
ClemyNX,1
SilverSzymonPL,1
albinohut,1
InfernalGod,1
BitterlySarcastic,1
peppermintbutl3r,1
astontech,1
Imnotverycreative3,1
maybeex,1
DUDEVSTHEWORLD,1
gaz_powered_stick,1
YOURE_NOT_REAL_MAN,1
SirVenIm,1
ajvalent,1
IIICHEWYIII,1
IacioVerum,1
SanSenju,1
InnerWrathChild,1
Uhillbilly,1
ImTheBigJ,1
Jtg_Jew,1
wbbarth,1
srkdummy3,1
GhostOfTheAnarchist,1
dperezk,1
str3uner,1
no-militarism,1
TakesJonToKnowJuan,1
Landoro_,1
PiratesOfTheAss,1
I_Have_Raids,1
mixplate,1
chickenwraith,1
yogthos,1
RespublicaCuriae,1
zaccarin,1
ruchenn,1
real_eparker,1
RyanA009,1
sebastiancoe,1
RodneyNicotine,1
epochellipse,1
Asterios390528,1
MajorityAlaska,1
suekichi,1
cratermaker123,1
707squatch,1
bannerchud,1
MrJackHoliday,1
mlg_Kaiser,1
aslokaa,1
leonardmatt,1
Manof_theFuture,1
ATLBMW,1
Sittes,1
AndyjHops,1
repeatReputation,1
ApolloBeats808,1
JRock935,1
Far_Welcome101,1
caliphornian,1
alud2340,1
seymour47,1
Pinguaro,1
RedditAccount9345672,1
mrkl3en,1
theblingbling,1
KriosXVII,1
Finding_Plato,1
midwestraxx,1
quintana88,1
namesaremptynoise,1
Zen_Coyote,1
prototype_4,1
FoxyFoxMulder,1
iatethat,1
ghost_city,1
LostSoulsAlliance,1
acidplasm,1
booey777,1
carrots084,1
themoldgipper,1
Ca1yso,1
CipherInTheKnow,1
alexflyn,1
LandOfFruitsAndNuts,1
FatMonteverdi,1
jester_juniour,1
NDD73,1
Anwar18,1
Setanta85,1
aznPHENOM,1
knightfluttershy,1
randyfloyd37,1
theswordandspoon,1
thisisturtle,1
PaxRubrum,1
unfamousads,1
HellsquidsIntl,1
DietCodeRed,1
BjarneKnausgaard,1
grexior,1
PeopleWearMyJeans,1
godsafraud,1
truecArdplayer420,1
JasonHackman,1
nickthib,1
maikins,1
Yippieshambles,1
GreenGonz,1
venussuz,1
pipirisnais,1
Ragnarokcometh,1
The1stCitizenOfTheIn,1
abudabu,1
eatitwithaspoon,1
GiboXD,1
greensploge1,1
sue_me_please,1
Pigmansweet,1
bl4ckbug,1
theteramon,1
slayqueen4,1
PuffingDragon,1
queenkenneth,1
Tuskeegee_T_Pallidum,1
wulabot,1
goonercooker,1
Beer_conquers_all,1
alex4d4d,1
Talkahuano,1
Philosophleur,1
CommonLawl,1
snotterdott,1
Clay_Friend,1
Bella1904,1
t_brad93,1
Szmo,1
fing3roperation,1
RedxGeryon,1
shat_on_the_lawn,1
sockhuman,1
apostategoingtoheck,1
dangerousavacado,1
tired_lettuce_eater,1
CanYouDigItDeep,1
supercerealyouguys,1
after_Silence,1
Vanilla_is_complex,1
Nud3Elit3,1
Falling_Higher_,1
vw46u,1
worksucks99,1
VientoSolitario,1
brandeded,1
penisretard42069,1
commanderadnan,1
madcowga,1
elpochi1,1
joshragem,1
Abrainwithabody,1
FOlahey,1
Jga2u,1
BabyProofToilets,1
blackmusicalrabbit,1
pizzagram6G6,1
kaltesterne,1
CapnJackoffSwallow,1
Gilmenator,1
VGStarcall,1
LivingRaccoon,1
UpbeatWord,1
TinMayn,1
dixmvnd,1
BubbleGuts01,1
supremexrising,1
dstoller,1
carnedelpie,1
soghosty,1
captaincalamity_,1
Neorio1,1
StagehandApollo,1
DrRakdos,1
FreeThoughtWorldWide,1
MedPyschonaut7,1
francisxdonut,1
Pickles_Aplenty,1
CuteFaithlessness6,1
ghostninja33,1
expendablethoughts,1
NotFooledbyFools,1
zhemao,1
NunoFranciscoCardoso,1
Eurynom0s,1
grenadetradedotcom,1
Evoraist,1
djmacbest,1
ThatOneThingOnce,1
seanmcgoldy,1
langis_on,1
476pol,1
craig1818,1
eektwomice,1
JoeWaffleUno,1
BiteYourThumbAtMeSir,1
HistoricalDebates,1
Kishara,1
haxamin,1
hypoboxer,1
readet,1
Shakaib_Tariq,1
glberns,1
porn_is_kewl,1
columbo222,1
blood_bag,1
immortalfirelover,1
ShortFuse,1
athornton436,1
Lokalexabender,1
MashedPotatoesDick,1
jlew24asu,1
alfu30b,1
SarcasticGamer,1
Altephor1,1
mccannt1,1
PRbox,1
AudiRS8,1
BDMayhem,1
edmar10,1
sayitlikeyoumemeit,1
ThroughThePortico,1
mkvgtired,1
jwpp,1
GuyNoirPI,1
doomtrooper3,1
chiathee,1
Toronto_man,1
uw_gooselord,1
Rumorian,1
sterno_joe,1
tilapios,1
OnePunkArmy,1
bunchofclowns,1
lurkyduck,1
RealYumSen,1
JBellanger,1
PhoenixAlpha204,1
ComfortableSuccotash,1
LazLoe,1
EmuCult,1
djpatientnathan,1
Quidfacis_,1
TrumpImpeachedAugust,1
combatwombat-,1
i_hate_robo_calls,1
cfchairspray,1
mintyporkchop,1
Purple_berry371,1
Fucking_Your_Mom,1
pericalypse,1
tracygav,1
howlongtillchristmas,1
pandas795,1
tetlee,1
KifeNugget,1
razerzej,1
OtterApocalypse,1
GlengarryGlencross,1
TedStriker4,1
PacosTacos88,1
legomaniac89,1
AthleticNerd_,1
getacrowbar,1
chefr89,1
dcasarinc,1
Bigpikachu1,1
StudioSixtyFour,1
AnnieHiro,1
riversforever,1
merpaderpaderp,1
texasnole82,1
ApolloTheCosmonaut,1
wenchette,1
ra_ekim,1
v2o2,1
JedsDad,1
crv163,1
huisi,1
kgunnar,1
piede,1
zelda-go-go,1
AttackoftheMuffins,1
valonnyc,1
watchmeprocrastibate,1
mayorodoyle,1
Hopperkin,1
WeKilledSocrates,1
b00gizm,1
nmesunimportnt,1
tierras_ignoradas,1
Dilaudette,1
JPOG,1
RunShootDrink,1
the_simurgh,1
MuzzleO,1
chemicalsam,1
pun420,1
empw,1
Joe6pack1138,1
kpmgeek,1
QualityAsshole,1
GonzosRedShark,1
SuccessfulOperation,1
jkeyc,1
OrsoMalleus,1
revscat,1
cameronrad,1
troutmask_replica,1
gerwer,1
MikeSutton5023,1
PDX_Stan,1
andrewautopsy,1
YesYouMemeThat,1
lynbod,1
kevans2,1
rpeg,1
jcdulos,1
faunaflora1,1
ainbheartach,1
jayjayjay92,1
flowerhoney10,1
alexthegraham,1
NoneDareCallOrdinary,1
jebotionmater,1
wyattberr,1
68024,1
slingtarp,1
landothedead,1
podthestud,1
WrongHelicopter,1
Lenin_Lime,1
FinnSolomon,1
iN5OMANiAC,1
strangerthaaang,1
aerlenbach,1
part-time-stupid,1
PlasticSentence,1
Bun_Of_Steel,1
fordnut,1
bowzerz17,1
therecordcorrected,1
Ed_Trucks_Head,1
Blueshift7777,1
Jeredin,1
Cthulhu_sneeze,1
GeneraIKenoA,1
MaryADraper,1
operaman2010,1
turtlebrigade,1
HHHogana,1
Evilbit77,1
TD_car_man,1
lucky_lulu,1
NWNate99,1
jm287706,1
raitchison,1
Spamwarrior,1
NihiloZero,1
TinFoilSombrero,1
H_Sleazayy,1
Opcn,1
Graphitetshirt,1
Laurdavis87,1
QuainPercussion,1
checkhisusername,1
demodiesindarkness,1
sens31,1
smurfy12,1
NuggetLord99,1
ladydem,1
dubhud,1
Astrocoder,1
duexphoto4,1
muellertimepodcast,1
JokerVsMyers,1
Pozolives,1
Hoosagoodboy,1
9fmaverick,1
NZXTTXZN,1
cats_on_t_rexes,1
Blugold,1
Wink7777,1
seismicgear,1
chzhead-inthe-desert,1
ChristopherRoommate,1
BenKenobi05,1
LotteryD,1
Sregdomot,1
lowIQanon,1
steamyrayvaughan89,1
Iriangaia,1
MrMusAddict,1
IDontGetIt404,1
SpuriousJournalism,1
Yosoff,0
chabanais,0
tehForce,0
ReaganTroll,0
wakinc,0
stancrouch,0
alc59,0
SgtWhiskeyj4ck,0
scrubking,0
robbiecee2,0
tenshon,0
Tawana_Brawleys_Dad,0
ThePoliticalHat,0
guanaco55,0
Infinitedismissal,0
ExpensiveMention,0
Septimus_Decimus,0
optionhome,0
bearwave,0
Clatsop,0
Herschey,0
aCreditGuru,0
ozric101,0
system_exposure,0
SuperCharged2000,0
Baptism-Of-Fire,0
Themusician67,0
giobbistar21,0
lancerelliott,0
AngelU04,0
Son0fSun,0
memberCP,0
BasedBastiat,0
StarFuryG7,0
thatrightwinger,0
mexicanmuscel,0
Sc_yamez87,0
Trussed_Up,0
HorrorIngenuity,0
farkuf,0
Mawaukey,0
GuitarWizard90,0
NightFreak87,0
ngoni,0
Zac1245,0
ATimeForChoosing,0
MooMooCudChew,0
TheHairyApe,0
ultimis,0
AD-6-26,0
ENEB1487,0
Gnome_Sane,0
Ryan_Holman,0
dtlv5813,0
Ferginator,0
Enzo_SAWFT,0
Natanyul,0
Rightquercusalba,0
Chribuna,0
GorathThorgath,0
primitivo_,0
M_T_ToeShoes,0
unionssucktrustme,0
Mr_Shatz,0
digoryk,0
lareform,0
sumdudeinhisundrware,0
Dudehitscar,0
otismcgovern,0
ChunkyArsenio,0
Vive_Henri_IV,0
undue-influence,0
IndefinitePresent,0
Glochidiate,0
OkSupermarket8,0
BudrickBundy,0
Okeson16,0
aaronmgreen,0
rsashe1980,0
conspiracythierry,0
chocoladna,0
50Star,0
Anen-o-me,0
buzznuts,0
american23t,0
bigdaveyl,0
EndHumanTrafficking2,0
EvilPhd666,0
PagingDrBenway,0
ITeachFuckingScience,0
Patriot_Mike83,0
A_solo_tripper,0
ARTofDiNoandDART,0
10gauge,0
futureHacker23,0
CharlieBronsonsGhost,0
DesperadoGW,0
xleperconx,0
EllimistsDream,0
HankyPankyMilk,0
WonkaILoompa,0
TruthISTruth46,0
lpj2829,0
Phaylz,0
smartmanrizani,0
GudNTasty420,0
LoverPokerSlinker,0
bonaphyde47,0
RidleyBourne,0
Hench4ever10100,0
dreamchaser848,0
akki_R,0
Thatoneguythatsweird,0
barn9,0
mrfunkcit,0
GreasedLightning,0
Theveryunfortunate,0
M_Cuckerberg,0
yerbox,0
JaevlaSkit,0
zzaz,0
davidapstein,0
BadTRAFFIC,0
borat2019,0
littlephoot,0
mojavelover,0
DeltaJuliettTang,0
wewewawa,0
Atschmid,0
Elnique,0
EducatingLiberals,0
standard_armadillo,0
pugsaremydrugs,0
BradSamaratin,0
8r5jtiojjro,0
ArmedTrumpGod,0
HillarysKnuckle,0
Chuckmorse,0
EvilMrBean,0
ghgfiojhgo,0
jusjessi9,0
realneil,0
NeverNotTrump,0
Illuminaughtie,0
catsfive,0
MizchiefKilz,0
stellardrome2,0
merlynmagus,0
Bernie4Ever,0
ChiefNTweeky,0
TelAvivTrump,0
MySistersDad,0
MetaBambi,0
hot_tin_bedpan,0
Moneymantoday,0
Yolo20152016,0
adalton1985,0
adamon134,0
beeokee,0
chirpingbirdie,0
ReaganChild,0
Ted-the-Pirate,0
IBiteYou,0
DBG1998,0
i_love_oedipus_mom,0
MarkdownShadowBot,0
teerrioo,0
Lel-U_Smell,0
WildlifePlanet,0
shibeKBVE,0
swiet,0
Steez-n-Treez,0
joanne5141,0
erikratka,0
stonekrab1,0
AdamsDJ,0
wired8888,0
raffu280,0
The_seph_i_am,0
damegawatt,0
SleekFilet,0
Aldebaran333,0
ramon10101,0
helluvanengineer,0
everyman99,0
floroc1,0
Chad_Tachanka,0
maxxamus15,0
Trill-I-Am,0
geekypotatoman,0
surferguy90,0
Iamninja28,0
SittingWizard,0
Deathoftheleft,0
GFZDW,0
KrimsonStorm,0
Occupy_RULES6,0
novvva,0
espionage0110,0
superdmp,0
MyPenLeaksFire,0
boltmarch23,0
TheOldSaltyDog,0
chrsblk,0
kko-caykoh,0
MereMemetics,0
xwizee16,0
Wespiratory,0
Screwurfeels,0
octobermakesmehappy,0
Ulmac,0
Theyseemefishin,0
haydenjinmon,0
Lieutenant_Liberty,0
Orbtecc,0
rux850,0
RogueParadise,0
phineas_the_ferb,0
colourlights,0
sinnermass,0
ImAnEngnineere,0
he-hate-me___4,0
thivux0,0
WillDaBeast_,0
jbr0ad,0
Luxuryserena,0
gutteral-noises,0
burdman1969,0
Alex_west112233,0
deathangel357,0
warteeri,0
notmyheadcoach,0
OffSuprVro,0
eucalyptusmonk,0
SushiFighterv2,0
RipperShirts,0
milkboy33,0
jbmelk,0
donutjonut,0
cheezepwnz,0
budderboymania,0
lookupmystats94,0
Westonbomb,0
BinyaminDelta,0
Gibby121200,0
SetItDeep,0
thatsmeatman,0
RegretPoweredRocket,0
DeLaRey,0
PM_ME_YOUR_BOBBINS,0
SteveLolyouwish,0
sweetpoppajellyroll,0
xwizee17,0
nmradcowboy,0
nygiants1776,0
REducation1,0
1stuno,0
morty346,0
bfwilley,0
throwingit_all_away,0
Rickard58,0
Jftaran,0
4now5now6now,0
jwpeppa646,0
the_perfect_drug_,0
emeriticus,0
Pod6ResearchAsst,0
Vunks,0
JoinOrDie11816,0
